learnOrd – Ordinal regression models for Likert/rating scales data
…
  Ordinal regression models for Likert/rating scales data

Dr Stefano Coretta 

            University of Edinburgh

  2025-01-23

Ordinal data

acceptability <- read_csv("https://osf.io/download/xmkvg/")
acceptability |> select(Participant, Condition, Response)

# A tibble: 1,176 × 3
   Participant Condition    Response
   <chr>       <chr>           <dbl>
 1 g1          canonical           7
 2 g1          noncanonical        7
 3 g1          canonical           7
 4 g1          noncanonical        7
 5 g1          canonical           7
 6 g1          noncanonical        6
 7 g1          canonical           7
 8 g1          noncanonical        7
 9 g1          canonical           6
10 g1          noncanonical        7
# ℹ 1,166 more rows
…
Language proficiency

proficiency <- read_csv("https://osf.io/download/4j3r2/") |> 
  mutate(
    Response = ordered(Response, levels = c("functional", "good", "very good", "nativelike"))
  )

proficiency

# A tibble: 55 × 3
   Participant Response     AoA
   <chr>       <ord>      <dbl>
 1 BLP523      very good     19
 2 CCZ257      very good     17
 3 DSY144      nativelike     7
 4 FLP885      good          18
 5 GFJ452      very good     19
 6 GLF239      nativelike    10
 7 GNB157      nativelike     7
 8 GPR735      good          10
 9 GWL482      very good     17
10 GZV988      nativelike    12
# ℹ 45 more rows
…
A slightly more complex example: Emilian proficiency

emilian <- readRDS("data/emilianto.rds") |> 
  filter(language == "Emilian") |> 
  mutate(
    age_c = age - mean(age),
    speak_2 = ordered(speak_2)
  )
emilian |> dplyr::select(age, age_c, education, gender, speak_2)

# A tibble: 434 × 5
     age  age_c education      gender speak_2   
   <dbl>  <dbl> <fct>          <chr>  <ord>     
 1    57  23.5  Primary/Middle M      very well 
 2    20 -13.5  Secondary      F      so and so 
 3    50  16.5  Secondary      M      very well 
 4    25  -8.46 Bachelor       F      not at all
 5    65  31.5  Primary/Middle M      very well 
 6    56  22.5  Secondary      F      very well 
 7    62  28.5  Secondary      M      very well 
 8    65  31.5  Masters+       M      very well 
 9    63  29.5  Primary/Middle F      very well 
10    61  27.5  Primary/Middle M      well      
# ℹ 424 more rows
…
